{
  "meta": {
    "page": 1,
    "page_size": 50,
    "total_count": 1523,
    "total_pages": 31,
    "db_start": 1880,
    "db_end": 2023,
    "popularity_summary": {
      "population_total": 1530245,
      "active_driver": "coverage_percent",
      "active_value": 95.0,
      "derived_min_count": 487,
      "derived_top_n": 1200,
      "derived_coverage_percent": 95.0
    }
  },
  "names": [
    {
      "name": "Alex",
      "total_count": 125430,
      "female_count": 62715,
      "male_count": 62715,
      "unknown_count": 0,
      "gender_balance": 50.0,
      "has_unknown_data": false,
      "rank": 1,
      "cumulative_share": 0.082,
      "name_start": 1920,
      "name_end": 2023,
      "countries": ["US", "UK", "SE"]
    },
    {
      "name": "Jordan",
      "total_count": 98234,
      "female_count": 45000,
      "male_count": 53234,
      "unknown_count": 0,
      "gender_balance": 54.2,
      "has_unknown_data": false,
      "rank": 2,
      "cumulative_share": 0.146,
      "name_start": 1880,
      "name_end": 2023,
      "countries": ["US", "UK"]
    },
    {
      "name": "Taylor",
      "total_count": 87650,
      "female_count": 52590,
      "male_count": 35060,
      "unknown_count": 0,
      "gender_balance": 40.0,
      "has_unknown_data": false,
      "rank": 3,
      "cumulative_share": 0.203,
      "name_start": 1950,
      "name_end": 2023,
      "countries": ["US", "UK", "SE"]
    },
    {
      "name": "Riley",
      "total_count": 76543,
      "female_count": 38271,
      "male_count": 38272,
      "unknown_count": 0,
      "gender_balance": 50.0,
      "has_unknown_data": false,
      "rank": 4,
      "cumulative_share": 0.253,
      "name_start": 1990,
      "name_end": 2023,
      "countries": ["US"]
    },
    {
      "name": "Morgan",
      "total_count": 65432,
      "female_count": 45802,
      "male_count": 19630,
      "unknown_count": 0,
      "gender_balance": 30.0,
      "has_unknown_data": false,
      "rank": 5,
      "cumulative_share": 0.296,
      "name_start": 1880,
      "name_end": 2015,
      "countries": ["US", "UK"]
    },
    {
      "name": "Casey",
      "total_count": 54321,
      "female_count": 27160,
      "male_count": 27161,
      "unknown_count": 0,
      "gender_balance": 50.0,
      "has_unknown_data": false,
      "rank": 6,
      "cumulative_share": 0.332,
      "name_start": 1960,
      "name_end": 2010,
      "countries": ["US"]
    },
    {
      "name": "Jamie",
      "total_count": 48765,
      "female_count": 29259,
      "male_count": 19506,
      "unknown_count": 0,
      "gender_balance": 40.0,
      "has_unknown_data": false,
      "rank": 7,
      "cumulative_share": 0.364,
      "name_start": 1950,
      "name_end": 2023,
      "countries": ["US", "UK"]
    },
    {
      "name": "Avery",
      "total_count": 42109,
      "female_count": 33687,
      "male_count": 8422,
      "unknown_count": 0,
      "gender_balance": 20.0,
      "has_unknown_data": false,
      "rank": 8,
      "cumulative_share": 0.392,
      "name_start": 2000,
      "name_end": 2023,
      "countries": ["US"]
    },
    {
      "name": "Skyler",
      "total_count": 38900,
      "female_count": 23340,
      "male_count": 15560,
      "unknown_count": 0,
      "gender_balance": 40.0,
      "has_unknown_data": false,
      "rank": 9,
      "cumulative_share": 0.418,
      "name_start": 1985,
      "name_end": 2023,
      "countries": ["US"]
    },
    {
      "name": "Quinn",
      "total_count": 35678,
      "female_count": 19123,
      "male_count": 16555,
      "unknown_count": 0,
      "gender_balance": 46.4,
      "has_unknown_data": false,
      "rank": 10,
      "cumulative_share": 0.441,
      "name_start": 1995,
      "name_end": 2023,
      "countries": ["US", "UK"]
    },
    {
      "name": "Reese",
      "total_count": 32456,
      "female_count": 24342,
      "male_count": 8114,
      "unknown_count": 0,
      "gender_balance": 25.0,
      "has_unknown_data": false,
      "rank": 11,
      "cumulative_share": 0.462,
      "name_start": 1990,
      "name_end": 2023,
      "countries": ["US"]
    },
    {
      "name": "Dakota",
      "total_count": 29871,
      "female_count": 14935,
      "male_count": 14936,
      "unknown_count": 0,
      "gender_balance": 50.0,
      "has_unknown_data": false,
      "rank": 12,
      "cumulative_share": 0.482,
      "name_start": 1985,
      "name_end": 2020,
      "countries": ["US"]
    },
    {
      "name": "Rare",
      "total_count": 150,
      "female_count": 0,
      "male_count": 0,
      "unknown_count": 150,
      "gender_balance": null,
      "has_unknown_data": true,
      "rank": 1500,
      "cumulative_share": 0.999,
      "name_start": 2020,
      "name_end": 2023,
      "countries": ["SE"]
    }
  ]
}